<?xml version="1.0" encoding="iso-8859-1"?>
<!-- Generator: Adobe Illustrator 19.0.0, SVG Export Plug-In . SVG Version: 6.00 Build 0)  -->
<svg version="1.1" id="Layer_1" xmlns="http://www.w3.org/2000/svg" xmlns:xlink="http://www.w3.org/1999/xlink" x="0px"
     y="0px"
     viewBox="0 0 512 512" style="enable-background:new 0 0 512 512;" xml:space="preserve">
<path style="fill:#D80027;"
      d="M0,256C0,114.616,114.616,0,256,0s256,114.616,256,256c-11.13,0-256,33.391-256,33.391L0,256z"/>
  <path style="fill:#6DA544;" d="M512,256c0,141.384-114.616,256-256,256S0,397.384,0,256"/>
  <polygon style="fill:#FFDA44;" points="255.999,166.957 275.336,226.475 337.923,226.475 287.291,263.261 306.629,322.783
	255.999,285.998 205.368,322.783 224.709,263.261 174.076,226.475 236.66,226.475 "/>
  <g>
</g>
  <g>
</g>
  <g>
</g>
  <g>
</g>
  <g>
</g>
  <g>
</g>
  <g>
</g>
  <g>
</g>
  <g>
</g>
  <g>
</g>
  <g>
</g>
  <g>
</g>
  <g>
</g>
  <g>
</g>
  <g>
</g>
</svg>
