<?xml version="1.0" encoding="iso-8859-1"?>
<!-- Generator: Adobe Illustrator 19.0.0, SVG Export Plug-In . SVG Version: 6.00 Build 0)  -->
<svg version="1.1" id="Layer_1" xmlns="http://www.w3.org/2000/svg" xmlns:xlink="http://www.w3.org/1999/xlink" x="0px"
     y="0px"
     viewBox="0 0 512 512" style="enable-background:new 0 0 512 512;" xml:space="preserve">
<circle style="fill:#F0F0F0;" cx="256" cy="256" r="256"/>
  <path style="fill:#D80027;" d="M256,0c-51.376,0-99.208,15.145-139.3,41.198l65.839,44.129l-82.365,42.666l82.365,42.666
	l-82.365,42.666l82.365,42.661l-82.365,42.665l82.365,42.665l-82.365,42.67l82.365,42.666l-65.847,44.143
	C156.786,496.853,204.621,512,256,512c141.384,0,256-114.616,256-256S397.384,0,256,0z"/>
  <g>
</g>
  <g>
</g>
  <g>
</g>
  <g>
</g>
  <g>
</g>
  <g>
</g>
  <g>
</g>
  <g>
</g>
  <g>
</g>
  <g>
</g>
  <g>
</g>
  <g>
</g>
  <g>
</g>
  <g>
</g>
  <g>
</g>
</svg>
