<?xml version="1.0" encoding="iso-8859-1"?>
<!-- Generator: Adobe Illustrator 19.0.0, SVG Export Plug-In . SVG Version: 6.00 Build 0)  -->
<svg version="1.1" id="Layer_1" xmlns="http://www.w3.org/2000/svg" xmlns:xlink="http://www.w3.org/1999/xlink" x="0px"
     y="0px"
     viewBox="0 0 512 512" style="enable-background:new 0 0 512 512;" xml:space="preserve">
<circle style="fill:#F0F0F0;" cx="256" cy="256" r="256"/>
  <path style="fill:#0052B4;" d="M496.077,166.957H15.923C5.632,194.69,0,224.686,0,256s5.632,61.31,15.923,89.043h480.155
	C506.368,317.31,512,287.314,512,256S506.368,194.69,496.077,166.957z"/>
  <g>
	<path style="fill:#D80027;" d="M256,0C178.409,0,108.886,34.524,61.939,89.043H450.06C403.114,34.524,333.591,0,256,0z"/>
    <path style="fill:#D80027;"
          d="M450.061,422.957H61.939C108.886,477.476,178.409,512,256,512S403.114,477.476,450.061,422.957z"/>
</g>
  <g>
</g>
  <g>
</g>
  <g>
</g>
  <g>
</g>
  <g>
</g>
  <g>
</g>
  <g>
</g>
  <g>
</g>
  <g>
</g>
  <g>
</g>
  <g>
</g>
  <g>
</g>
  <g>
</g>
  <g>
</g>
  <g>
</g>
</svg>
