<svg id="Layer_1" data-name="Layer 1" xmlns="http://www.w3.org/2000/svg" width="21" height="21" viewBox="0 0 93 93">
  <g fill="none" fill-rule="evenodd" transform="translate(1 1)">
    <circle cx="45" cy="45" r="45" fill="#FF2525" stroke="#D3D3D3"/>
  <path fill="#FFF" fill-rule="nonzero" d="M73.69,39.41a1.78,1.78,0,1,0-2.81,2.19l2.33,3H57.55a11.07,11.07,0,0,0-9.23-8.92V19.4l3.09,2.23a1.78,1.78,0,1,0,2.08-2.89l-7-5-6.92,5.41a1.78,1.78,0,1,0,2.2,2.81l3-2.34V35.7a11.07,11.07,0,0,0-9,9.11H20.07l2.23-3.09a1.79,1.79,0,0,0-2.9-2.09l-5,7,5.42,6.91a1.77,1.77,0,0,0,1.4.69,1.81,1.81,0,0,0,1.1-.38,1.78,1.78,0,0,0,.3-2.5l-2.33-3H35.76a11.09,11.09,0,0,0,9.05,9.12V73.22L41.71,71a1.78,1.78,0,0,0-2.08,2.9l7,5,6.91-5.42a1.78,1.78,0,1,0-2.2-2.8l-3,2.33V57.52a11.07,11.07,0,0,0,9.25-9.37H73.39l-2.22,3.09a1.78,1.78,0,1,0,2.89,2.09l5-7Zm-27,14.69a7.51,7.51,0,1,1,7.51-7.51A7.51,7.51,0,0,1,46.67,54.1Z"/>
  </g>
</svg>
